<?xml version="1.0" encoding="UTF-8"?>
<svg width="12px" height="7px" viewBox="0 0 12 7" version="1.1" xmlns="http://www.w3.org/2000/svg" xmlns:xlink="http://www.w3.org/1999/xlink">
    <!-- Generator: Sketch 49 (51002) - http://www.bohemiancoding.com/sketch -->
    <title>DownArrow</title>
    <desc>Created with Sketch.</desc>
    <defs></defs>
    <g id="Page-1" stroke="none" stroke-width="1" fill="none" fill-rule="evenodd">
        <g id="Add-new-address-1" transform="translate(-775.000000, -354.000000)" fill="#3D4166" fill-rule="nonzero">
            <g id="Content" transform="translate(230.000000, 178.000000)">
                <g id="Input" transform="translate(530.000000, 128.000000)">
                    <path d="M26.8800964,48.7214008 L26.2789362,48.1202826 C26.198832,48.04001 26.1065564,48 26.0022356,48 C25.8981676,48 25.8059341,48.04001 25.7258299,48.1202826 L21.0000632,52.8457967 L16.274507,48.1204089 C16.1943607,48.0401363 16.1021272,48.0001263 15.9979328,48.0001263 C15.8936963,48.0001263 15.8014628,48.0401363 15.7213587,48.1204089 L15.1202826,48.7215692 C15.04001,48.8016734 15,48.8939069 15,48.9981434 C15,49.1022957 15.0401363,49.1945292 15.1202826,49.2746333 L20.723489,54.8779661 C20.8035932,54.9581124 20.8958688,54.9981645 21.0000632,54.9981645 C21.1042576,54.9981645 21.1963647,54.9581124 21.2764268,54.8779661 L26.8800964,49.2746333 C26.9602006,49.194487 27,49.1022535 27,48.9981434 C27,48.8939069 26.9602006,48.8016734 26.8800964,48.7214008 Z" id="DownArrow"></path>
                </g>
            </g>
        </g>
    </g>
</svg>