<?xml version="1.0" encoding="UTF-8"?>
<svg width="20px" height="18px" viewBox="0 0 20 18" version="1.1" xmlns="http://www.w3.org/2000/svg" xmlns:xlink="http://www.w3.org/1999/xlink">
    <!-- Generator: Sketch 49 (51002) - http://www.bohemiancoding.com/sketch -->
    <title>linkedin-logo</title>
    <desc>Created with Sketch.</desc>
    <defs></defs>
    <g id="Page-1" stroke="none" stroke-width="1" fill="none" fill-rule="evenodd">
        <g id="Add-new-address-1" transform="translate(-1277.000000, -895.000000)" fill="#667380" fill-rule="nonzero">
            <g id="Footer" transform="translate(0.000000, 840.000000)">
                <g id="Social" transform="translate(1035.000000, 17.000000)">
                    <g id="linkedin-logo" transform="translate(242.000000, 38.000000)">
                        <path d="M19.0858182,11.033432 L19.0858182,17.9807767 L14.9951093,17.9807767 L14.9951093,11.4987233 C14.9951093,9.87037864 14.4034324,8.75909709 12.9227314,8.75909709 C11.792404,8.75909709 11.1197454,9.50801942 10.8238182,10.2324757 C10.7159017,10.491466 10.6881238,10.8519466 10.6881238,11.2144806 L10.6881238,17.9807767 L6.59603944,17.9807767 C6.59603944,17.9807767 6.65115139,7.00230583 6.59603944,5.86485437 L10.6877245,5.86485437 L10.6877245,7.58223786 C10.6794266,7.59508252 10.6686439,7.60893204 10.6608341,7.6213835 L10.6877245,7.6213835 L10.6877245,7.58223786 C11.2313448,6.75786408 12.2021937,5.58021845 14.3752552,5.58021845 C17.0675316,5.58017476 19.0858182,7.31188835 19.0858182,11.033432 Z M2.31554495,0.0243786408 C0.915648202,0.0243786408 0,0.928441748 0,2.11731553 C0,3.28028155 0.889157193,4.21178155 2.26123173,4.21178155 L2.28856584,4.21178155 C3.71557483,4.21178155 4.60304582,3.28045631 4.60304582,2.11731553 C4.57615545,0.928441748 3.71557483,0.0243786408 2.31554495,0.0243786408 Z M0.243033933,17.9807767 L4.33356526,17.9807767 L4.33356526,5.86485437 L0.243033933,5.86485437 L0.243033933,17.9807767 Z" id="LinkedIn"></path>
                    </g>
                </g>
            </g>
        </g>
    </g>
</svg>